%YAML 1.1
%TAG !u! tag:unity3d.com,2011:
--- !u!114 &11400000
MonoBehaviour:
  m_ObjectHideFlags: 0
  m_CorrespondingSourceObject: {fileID: 0}
  m_PrefabInstance: {fileID: 0}
  m_PrefabAsset: {fileID: 0}
  m_GameObject: {fileID: 0}
  m_Enabled: 1
  m_EditorHideFlags: 0
  m_Script: {fileID: 11500000, guid: 3d5d16eab0490db40b026fd2d2213661, type: 3}
  m_Name: 05_Collier
  m_EditorClassIdentifier: 
  ID: 5
  Name: Collier
  Illustration: {fileID: 21300000, guid: 0e123cfdc54a3ca4684816a34167a566, type: 3}
